…
#error <- results$opt.path$env$extra
#exec.time <- results$opt.path$env$
perform
```

    ## # A tibble: 105 x 9
    ##    max_features maxlen batch_size output_dim output_fun arch         y
    ##           <int>  <int>      <int>      <int> <chr>      <chr>    <dbl>
    ##  1         8600     37         12        197 softmax    fasttext 0.610
    ##  2         9812     40         13        188 softmax    lstm     0.607
    ##  3         9599     40         14        145 softmax    fasttext 0.605
    ##  4         9808     29         24        197 relu       lstm     0.601
    ##  5         8159     32         21        191 relu       fasttext 0.596
    ##  6         8705     33         27        199 relu       lstm     0.596
    ##  7         8156     35         22        200 relu       fasttext 0.596
    ##  8         8483     40         19        197 softmax    fasttext 0.595
    ##  9         9796     33         24        197 relu       fasttext 0.595
    ## 10         8530     39         20        149 softmax    lstm     0.594
    ## # ... with 95 more rows, and 2 more variables: exec.time <dbl>, step <int>
…
